:020000020000FC
:0200000029C015
:0200040044C0F6
:020008003DC0F9
:100054000FE50DBF04E00EBF06D00DD0789400006C
:1000640000000000FCCF0FEF0ABB00270BBB01BB55
:10007400929A939A089500E40BBF0AE005BF08958D
:10008400002703BF02B70BBB1895002702BF01E08E
:0800940003BF00E80BBF189543
:00000001FF
