:020000020000FC
:0200000029C015
:100054000FE50DBF04E00EBF0FEF0ABB0BBB0000A2
:100064000000FDCFA0E0B0E0C0E6D0E000E0E19900
:10007400FECFBFBBAEBBE09A1DB319931196039597
:060084000830A9F7089501
:00000001FF
