\relax 
\@writefile{toc}{\contentsline {section}{\numberline {1}Getting Started}{1}}
\@writefile{toc}{\contentsline {section}{\numberline {2}Microcontroller / Microprocessor Basics}{1}}
\@writefile{toc}{\contentsline {section}{\numberline {3}Peripherals}{2}}
\@writefile{toc}{\contentsline {subsection}{\numberline {3.1}IO Ports}{2}}
\@writefile{toc}{\contentsline {subsection}{\numberline {3.2}EEPROM}{2}}
\@writefile{toc}{\contentsline {subsection}{\numberline {3.3}Interrupts}{3}}
\@writefile{toc}{\contentsline {subsection}{\numberline {3.4}Timers/Counter}{3}}
\@writefile{toc}{\contentsline {section}{\numberline {4}Code Index}{3}}
\@writefile{toc}{\contentsline {section}{\numberline {5}Glossary of Terms}{5}}
