:020000020000FC
:0200000029C015
:100054000FE50DBF04E00EBF12D08099C098809BBD
:10006400C09A8199C198819BC19A819B03D0000059
:100074000000F3CF8299C298829BC29A0895B89ADD
:10008400C0988898909AB99AC1988998919ABA9A7E
:08009400C2988A98929A08951F
:00000001FF
