\relax 
\@writefile{toc}{\contentsline {section}{\numberline {1}Getting Started}{1}}
\@writefile{toc}{\contentsline {section}{\numberline {2}Microcontroller / Microprocessor Basics}{1}}
\@writefile{toc}{\contentsline {section}{\numberline {3}Peripherals}{2}}
\@writefile{toc}{\contentsline {subsection}{\numberline {3.1}Timers / Counters}{2}}
\@writefile{toc}{\contentsline {section}{\numberline {4}Code Index}{2}}
\@writefile{toc}{\contentsline {section}{\numberline {5}Glossary of Terms}{3}}
