:020000020000FC
:0200000029C015
:020038001CC0EA
:100054000FE50DBF04E00EBF00E607B90FEF06B9C8
:100064000FEF05BB04BB789400000000FDCF0F9395
:1000740005B11FEF011710F015BB25C01F7701173D
:1000840010F015BB20C01F73011710F015BB1BC067
:100094001F71011710F015BB16C01F70011710F067
:1000A40015BB11C01770011710F015BB0CC01370ED
:1000B400011710F015BB07C01170011710F015BB24
:0A00C40002C0112715BB0F9118951B
:00000001FF
